C:\Projects\HR\Subscription-API\src\main\java\com\mastercard\config\SubsriptionAPIAppConfig.java
C:\Projects\HR\Subscription-API\src\main\java\com\mastercard\config\ConfigProperties.java
C:\Projects\HR\Subscription-API\src\main\java\com\mastercard\dao\UserRepository.java
C:\Projects\HR\Subscription-API\src\main\java\com\mastercard\config\ApplicationPropertiesConfig.java
C:\Projects\HR\Subscription-API\src\main\java\com\mastercard\dao\Users.java
C:\Projects\HR\Subscription-API\src\main\java\com\mastercard\config\SubscriptionAPIAppInitializer.java
C:\Projects\HR\Subscription-API\src\main\java\com\mastercard\dao\PersistenceContext.java
C:\Projects\HR\Subscription-API\src\main\java\com\mastercard\services\SubscriptionServices.java
